[
  {
    "name": "Test job",
    "description": "Connect with universis demo api and get stats for students grouped by student status",
    "path": "./job-example.js",
    "interval": "every 1 minute"
  }
]
